<svg width="80" height="80" viewBox="0 0 80 80" fill="none" xmlns="http://www.w3.org/2000/svg">
<path d="M74.9564 29.0337L62.6313 16.7085L56.7523 22.5875L69.0775 34.9126C71.7075 37.5427 71.7075 41.7714 69.0775 44.4014L44.4788 69.0001C41.8487 71.6301 37.62 71.6301 34.99 69.0001L10.3397 44.4014C9.05046 43.1122 8.38006 41.4619 8.38006 39.657C8.38006 37.8521 9.05046 36.2018 10.3397 34.9126L34.9384 10.3139C37.5684 7.68387 41.7971 7.68387 44.4272 10.3139L50.8218 16.7085L56.7523 10.8296L50.3061 4.38341C47.4698 1.54709 43.7052 0 39.6828 0C35.6604 0 31.8958 1.54709 29.0595 4.38341L4.4092 29.0337C-1.46973 34.9126 -1.46973 44.453 4.4092 50.3319L29.0079 74.9306C34.8868 80.8095 44.4272 80.8095 50.3061 74.9306L74.9048 50.3319C80.8353 44.453 80.8353 34.9126 74.9564 29.0337Z" fill="#F26950"/>
<path d="M71.5012 13.7692C69.851 12.1189 67.221 12.1189 65.5707 13.7692L39.6828 39.6571L30.8128 30.7871C29.1626 29.1369 26.5326 29.1369 24.9339 30.7871C23.2837 32.4374 23.2837 35.0674 24.9339 36.7176L36.7433 48.5271C38.3936 50.1773 41.0236 50.1773 42.6223 48.5271L71.4497 19.6997C73.0999 18.0494 73.0999 15.3678 71.5012 13.7692Z" fill="#5A55CA"/>
<path d="M68.5465 22.6163L62.6392 28.5236L65.5928 31.4772L71.5002 25.5699L68.5465 22.6163Z" fill="#F26950"/>
<path d="M39.6828 70.9597C37.981 70.9597 36.2276 70.2893 34.9384 69.0001L10.3397 44.4014C9.05046 43.1122 8.38006 41.4619 8.38006 39.657C8.38006 37.8521 9.05046 36.2018 10.3397 34.9126L34.9384 10.3139C36.2276 9.02468 37.981 8.35427 39.6828 8.35427V0C35.6604 0 31.8958 1.54709 29.0595 4.38341L4.4092 29.0337C-1.46973 34.9126 -1.46973 44.453 4.4092 50.3319L29.0079 74.9306C31.9474 77.8701 35.8151 79.314 39.6312 79.314V70.9597H39.6828Z" fill="#F26950"/>
<path d="M39.6828 39.6571L30.8128 30.7871C29.1626 29.1369 26.5326 29.1369 24.9339 30.7871C23.2837 32.4373 23.2837 35.0674 24.9339 36.7176L36.7433 48.527C37.5684 49.3522 38.5998 49.7647 39.6828 49.7647V39.6571Z" fill="#F26950"/>
</svg>
